D:\Projects\KafkaTest\src\main\java\ProdConnect.java
D:\Projects\KafkaTest\src\main\java\MessageProducer.java
D:\Projects\KafkaTest\src\main\java\ConsConnect.java
D:\Projects\KafkaTest\src\main\java\MessageConsumer.java
